[
    {
    	"Where":     "urn:publicid:IDN+guesthouse.powderwireless.net+authority+cm",
        "NodeID":    "nuc1",
        "Type":      "B210",
        "Channels" : "2120e6,763e6",
        "Duration" : "10m",
        "End"      :  "2022:03:17T00:55:00",
        "RunCount" : 800
    },
    {
        "Where":     "urn:publicid:IDN+ebc.powderwireless.net+authority+cm",
        "NodeID":    "nuc1",
        "Type":      "B210",
        "Channels" : "763e6,885e6",
        "Duration" : "10m",
        "End"      :  "2022:03:17T00:55:00",
        "RunCount" : 800
    },
    {
        "Where":     "urn:publicid:IDN+cpg.powderwireless.net+authority+cm",
        "NodeID":    "nuc1",
        "Type":      "B210",
        "Channels" : "719.5e6,2165e6",
        "Duration" : "10m",
        "End"      :  "2022:03:17T00:55:00",
        "RunCount" : 800
    },
    {
        "Where":     "urn:publicid:IDN+madsen.powderwireless.net+authority+cm",
        "NodeID":    "nuc1",
        "Type":      "B210",
        "Channels" : "739e6,763e6",
        "Duration" : "10m",
        "End"      :  "2022:03:17T00:55:00",
        "RunCount" : 800
    },
    {
        "Where":     "urn:publicid:IDN+sagepoint.powderwireless.net+authority+cm",
        "NodeID":    "nuc1",
        "Type":      "B210",
        "Channels" : "719.5e6,739e6",
        "Duration" : "10m",
        "End"      :  "2022:03:17T00:55:00",
        "RunCount" : 800
    },
    {
        "Where":     "urn:publicid:IDN+moran.powderwireless.net+authority+cm",
        "NodeID":    "nuc1",
        "Type":      "B210",
        "Channels" : "1980e6,2132.5e6",
        "Duration" : "10m",
        "End"      :  "2022:03:17T00:55:00",
        "RunCount" : 800
    },
    {
        "Where":     "urn:publicid:IDN+law73.powderwireless.net+authority+cm",
        "NodeID":    "nuc1",
        "Type":      "B210",
        "Channels" : "1950e6,2165e6",
        "Duration" : "10m",
        "End"      :  "2022:03:17T00:55:00",
        "RunCount" : 800
    },
    {
    	"Where":       "urn:publicid:IDN+emulab.net+authority+cm",
        "NodeID":      "cellsdr1-hospital",
        "Type":        "X310",
        "ComputeType": "d740",
        "Channels" :   "1980e6,2132.5e6",
        "Duration" :   "10m",
        "End"      :  "2022:03:17T00:55:00",
        "RunCount" :   800
    },
    {
        "Where":       "urn:publicid:IDN+emulab.net+authority+cm",
        "NodeID":      "cellsdr1-bes",
        "Type":        "X310",
        "ComputeType": "d740",
        "Channels" :   "1950e6,2355e6",
        "Duration" :   "10m",
        "End"      :  "2022:03:17T00:55:00",
        "RunCount" :   800
    }
]