[
    {
    	"Where":     "urn:publicid:IDN+guesthouse.powderwireless.net+authority+cm",
        "NodeID":    "nuc1",
        "Type":      "B210",
        "Channels" : "763e6,2120e6",
        "Duration" : "2m",
        "End"      :  "2022:03:10T12:52:00",
        "RunCount" : 360
    },
    {
        "Where":     "urn:publicid:IDN+ebc.powderwireless.net+authority+cm",
        "NodeID":    "nuc1",
        "Type":      "B210",
        "Channels" : "763e6,885e6",
        "Duration" : "2m",
        "End"      :  "2022:03:10T12:50:00",
        "RunCount" : 360
    },
    {
        "Where":     "urn:publicid:IDN+cpg.powderwireless.net+authority+cm",
        "NodeID":    "nuc1",
        "Type":      "B210",
        "Channels" : "719.5e6,2165e6",
        "Duration" : "2m",
        "End"      :  "2022:03:10T12:48:00",
        "RunCount" : 360
    },
    {
        "Where":     "urn:publicid:IDN+madsen.powderwireless.net+authority+cm",
        "NodeID":    "nuc1",
        "Type":      "B210",
        "Channels" : "739e6,763e6",
        "Duration" : "2m",
        "End"      :  "2022:03:10T12:46:00",
        "RunCount" : 360
    },
    {
        "Where":     "urn:publicid:IDN+sagepoint.powderwireless.net+authority+cm",
        "NodeID":    "nuc1",
        "Type":      "B210",
        "Channels" : "719.5e6,739e6",
        "Duration" : "2m",
        "End"      :  "2022:03:10T12:44:00",
        "RunCount" : 360
    },
    {
        "Where":     "urn:publicid:IDN+moran.powderwireless.net+authority+cm",
        "NodeID":    "nuc1",
        "Type":      "B210",
        "Channels" : "1980e6,2132.5e6",
        "Duration" : "2m",
        "End"      :  "2022:03:10T12:42:00",
        "RunCount" : 360
    },
    {
        "Where":     "urn:publicid:IDN+law73.powderwireless.net+authority+cm",
        "NodeID":    "nuc1",
        "Type":      "B210",
        "Channels" : "1950e6,2165e6",
        "Duration" : "2m",
        "End"      :  "2022:03:10T12:40:00",
        "RunCount" : 360
    },
    {
    	"Where":       "urn:publicid:IDN+emulab.net+authority+cm",
        "NodeID":      "cellsdr1-hospital",
        "Type":        "X310",
        "ComputeType": "d740",
        "Channels" :   "1980e6,2132.5e6",
        "Duration" :   "2m",
        "End"      :  "2022:03:10T11:40:00",
        "RunCount" :   360
    },
    {
        "Where":       "urn:publicid:IDN+emulab.net+authority+cm",
        "NodeID":      "cellsdr1-bes",
        "Type":        "X310",
        "ComputeType": "d740",
        "Channels" :   "1950e6,2355e6",
        "Duration" :   "2m",
        "End"      :  "2022:03:10T11:40:00",
        "RunCount" :   360
    },
    {
        "Where":       "urn:publicid:IDN+emulab.net+authority+cm",
        "NodeID":      "cellsdr1-hospital",
        "Type":        "X310",
        "ComputeType": "d740",
        "Channels" :   "1980e6,2132.5e6",
        "Duration" :   "2m",
        "Start"      :  "2022:03:10T12:00:00",
        "End"      :  "2022:03:10T23:00:00",
        "RunCount" :   360
    },
    {
        "Where":       "urn:publicid:IDN+emulab.net+authority+cm",
        "NodeID":      "cellsdr1-bes",
        "Type":        "X310",
        "ComputeType": "d740",
        "Channels" :   "1950e6,2355e6",
        "Duration" :   "2m",
        "Start"      :  "2022:03:10T12:02:00",
        "End"      :  "2022:03:10T23:00:00",
        "RunCount" :   360
    },
    {
        "Where":     "urn:publicid:IDN+guesthouse.powderwireless.net+authority+cm",
        "NodeID":    "nuc1",
        "Type":      "B210",
        "Channels" : "763e6,2120e6",
        "Duration" : "2m",
        "Start"      :  "2022:03:10T13:14:00",
        "End"      :  "2022:03:10T23:00:00",
        "RunCount" : 360
    },
    {
        "Where":     "urn:publicid:IDN+ebc.powderwireless.net+authority+cm",
        "NodeID":    "nuc1",
        "Type":      "B210",
        "Channels" : "763e6,885e6",
        "Duration" : "2m",
        "Start"      :  "2022:03:10T13:12:00",
        "End"      :  "2022:03:10T23:00:00",
        "RunCount" : 360
    },
    {
        "Where":     "urn:publicid:IDN+cpg.powderwireless.net+authority+cm",
        "NodeID":    "nuc1",
        "Type":      "B210",
        "Channels" : "719.5e6,2165e6",
        "Duration" : "2m",
        "Start"      :  "2022:03:10T13:10:00",
        "End"      :  "2022:03:10T23:00:00",
        "RunCount" : 360
    },
    {
        "Where":     "urn:publicid:IDN+madsen.powderwireless.net+authority+cm",
        "NodeID":    "nuc1",
        "Type":      "B210",
        "Channels" : "739e6,763e6",
        "Duration" : "2m",
        "Start"      :  "2022:03:10T13:08:00",
        "End"      :  "2022:03:10T23:00:00",
        "RunCount" : 360
    },
    {
        "Where":     "urn:publicid:IDN+sagepoint.powderwireless.net+authority+cm",
        "NodeID":    "nuc1",
        "Type":      "B210",
        "Channels" : "719.5e6,739e6",
        "Duration" : "2m",
        "Start"      :  "2022:03:10T13:06:00",
        "End"      :  "2022:03:10T23:00:00",
        "RunCount" : 360
    },
    {
        "Where":     "urn:publicid:IDN+moran.powderwireless.net+authority+cm",
        "NodeID":    "nuc1",
        "Type":      "B210",
        "Channels" : "1980e6,2132.5e6",
        "Duration" : "2m",
        "Start"      :  "2022:03:10T13:04:00",
        "End"      :  "2022:03:10T23:00:00",
        "RunCount" : 360
    },
    {
        "Where":     "urn:publicid:IDN+law73.powderwireless.net+authority+cm",
        "NodeID":    "nuc1",
        "Type":      "B210",
        "Channels" : "1950e6,2165e6",
        "Duration" : "2m",
        "Start"      :  "2022:03:10T13:02:00",
        "End"      :  "2022:03:10T23:00:00",
        "RunCount" : 360
    },
]