[
    {
        "Where":     "urn:publicid:IDN+guesthouse.powderwireless.net+authority+cm",
        "NodeID":    "nuc1",
        "Type":      "B210",
        "Channels" : "624.5e6,1967.5e6",
        "Duration" : "10m",
        "Start"      :  "2022:03:15T00:11:00","End"      :  "2022:03:15T23:50:00",
        "RunCount" : 800
    },
    {
        "Where":     "urn:publicid:IDN+ebc.powderwireless.net+authority+cm",
        "NodeID":    "nuc1",
        "Type":      "B210",
        "Channels" : "624.5e6,2156.7e6",
        "Duration" : "10m",
        "Start"      :  "2022:03:15T00:12:00","End"      :  "2022:03:15T23:52:00",
        "RunCount" : 800
    },
    {
        "Where":     "urn:publicid:IDN+cpg.powderwireless.net+authority+cm",
        "NodeID":    "nuc1",
        "Type":      "B210",
        "Channels" : "1992.5e6,2145e6",
        "Duration" : "10m",
        "Start"      :  "2022:03:15T00:13:00","End"      :  "2022:03:15T23:53:00",
        "RunCount" : 800
    },
    {
        "Where":     "urn:publicid:IDN+madsen.powderwireless.net+authority+cm",
        "NodeID":    "nuc1",
        "Type":      "B210",
        "Channels" : "885e6,2120e6",
        "Duration" : "10m",
        "Start"      :  "2022:03:15T00:14:00","End"      :  "2022:03:15T23:54:00",
        "RunCount" : 800
    },
    {
        "Where":     "urn:publicid:IDN+sagepoint.powderwireless.net+authority+cm",
        "NodeID":    "nuc1",
        "Type":      "B210",
        "Channels" : "1967.5e6,2175e6",
        "Duration" : "10m",
        "Start"      :  "2022:03:15T00:15:00","End"      :  "2022:03:15T23:55:00",
        "RunCount" : 800
    },
    {
        "Where":     "urn:publicid:IDN+moran.powderwireless.net+authority+cm",
        "NodeID":    "nuc1",
        "Type":      "B210",
        "Channels" : "731.5e6,751e6",
        "Duration" : "10m",
        "Start"      :  "2022:03:15T00:16:00","End"      :  "2022:03:15T23:56:00",
        "RunCount" : 800
    },
    {
        "Where":     "urn:publicid:IDN+law73.powderwireless.net+authority+cm",
        "NodeID":    "nuc1",
        "Type":      "B210",
        "Channels" : "866.3e6,1957.5e6",
        "Duration" : "10m",
        "Start"      :  "2022:03:15T00:17:00","End"      :  "2022:03:15T23:57:00",
        "RunCount" : 800
    },
    {
        "Where":       "urn:publicid:IDN+emulab.net+authority+cm",
        "NodeID":      "cellsdr1-hospital",
        "Type":        "X310",
        "ComputeType": "d740",
        "Channels" :   "1957.5e6,751e6",
        "Duration" :   "10m",
        "Start"      :  "2022:03:15T00:18:00","End"      :  "2022:03:15T23:58:00",
        "RunCount" :   800
    }
    ,
    {
        "Where":       "urn:publicid:IDN+emulab.net+authority+cm",
        "NodeID":      "cellsdr1-bes",
        "Type":        "X310",
        "ComputeType": "d740",
        "Channels" :   "1937.5e6,2156.7e6",
        "Duration" :   "10m",
        "Start"      :  "2022:03:15T00:19:00","End"      :  "2022:03:15T23:59:00",
        "RunCount" :   800
    }
]