[
    {
    	"Where":     "urn:publicid:IDN+guesthouse.powderwireless.net+authority+cm",
        "NodeID":    "nuc1",
        "Type":      "B210",
        "Channels" : "2145e6,1967.5e6",
        "Duration" : "2m",
        "RunCount" : 360
    },
    {
        "Where":     "urn:publicid:IDN+ebc.powderwireless.net+authority+cm",
        "NodeID":    "nuc1",
        "Type":      "B210",
        "Channels" : "624.5e6,2156.7e6",
        "Duration" : "2m",
        "Start"    :  "2022:03:09T16:20:00",
        "End"      :  "2022:03:09T23:00:00",
        "RunCount" : 360
    },
    {
        "Where":     "urn:publicid:IDN+ebc.powderwireless.net+authority+cm",
        "NodeID":    "nuc1",
        "Type":      "B210",
        "Channels" : "624.5e6,2156.7e6",
        "Duration" : "2m",
        "End"      :  "2022:03:09T05:30:00",
        "RunCount" : 360
    },
    {
        "Where":     "urn:publicid:IDN+cpg.powderwireless.net+authority+cm",
        "NodeID":    "nuc1",
        "Type":      "B210",
        "Channels" : "1992.5e6,1937.5e6",
        "Duration" : "2m",
        "End"      :  "2022:03:09T23:00:00",
        "RunCount" : 360
    },
    {
        "Where":     "urn:publicid:IDN+madsen.powderwireless.net+authority+cm",
        "NodeID":    "nuc1",
        "Type":      "B210",
        "Channels" : "885e6,2120e6",
        "Duration" : "2m",
        "End"      :  "2022:03:09T23:00:00",
        "RunCount" : 360
    },
    {
        "Where":     "urn:publicid:IDN+sagepoint.powderwireless.net+authority+cm",
        "NodeID":    "nuc1",
        "Type":      "B210",
        "Channels" : "1967.5e6,2175e6",
        "Duration" : "2m",
        "End"      :  "2022:03:09T23:00:00",
        "RunCount" : 360
    },
    {
        "Where":     "urn:publicid:IDN+moran.powderwireless.net+authority+cm",
        "NodeID":    "nuc1",
        "Type":      "B210",
        "Channels" : "731.5e6,751e6",
        "Duration" : "2m",
        "Start"    :  "2022:03:09T16:20:00",
        "End"      :  "2022:03:09T23:00:00",
        "RunCount" : 360
    },
    {
        "Where":     "urn:publicid:IDN+moran.powderwireless.net+authority+cm",
        "NodeID":    "nuc1",
        "Type":      "B210",
        "Channels" : "731.5e6,751e6",
        "Duration" : "2m",
        "End"      :  "2022:03:09T05:00:00",
        "RunCount" : 360
    },
    {
        "Where":     "urn:publicid:IDN+law73.powderwireless.net+authority+cm",
        "NodeID":    "nuc1",
        "Type":      "B210",
        "Channels" : "866.3e6,1957.5e6",
        "Duration" : "2m",
        "End"      :  "2022:03:09T23:00:00",
        "RunCount" : 360
    },
    {
    	"Where":       "urn:publicid:IDN+emulab.net+authority+cm",
        "NodeID":      "cellsdr1-hospital",
        "Type":        "X310",
        "ComputeType": "d740",
        "Channels" :   "1957.5e6,751e6",
        "Duration" :   "2m",
        "End"      :  "2022:03:09T23:00:00",
        "RunCount" :   360
    }
]
