[
    {
    	"Where":     "urn:publicid:IDN+guesthouse.powderwireless.net+authority+cm",
        "NodeID":    "nuc1",
        "Type":      "B210",
        "Channels" : "2175e6",
        "Duration" : "15m",
        "End"      :  "2022:03:22T23:35:00",
        "RunCount" : 24
    },
    {
        "Where":     "urn:publicid:IDN+ebc.powderwireless.net+authority+cm",
        "NodeID":    "nuc1",
        "Type":      "B210",
        "Channels" : "751e6",
        "Duration" : "15m",
        "End"      :  "2022:03:22T23:35:00",
        "RunCount" : 24
    },
    {
        "Where":     "urn:publicid:IDN+cpg.powderwireless.net+authority+cm",
        "NodeID":    "nuc1",
        "Type":      "B210",
        "Channels" : "1937.5e6",
        "Duration" : "15m",
        "End"      :  "2022:03:22T23:35:00",
        "RunCount" : 24
    },
    {
        "Where":     "urn:publicid:IDN+madsen.powderwireless.net+authority+cm",
        "NodeID":    "nuc1",
        "Type":      "B210",
        "Channels" : "624.5e6",
        "Duration" : "15m",
        "End"      :  "2022:03:22T23:35:00",
        "RunCount" : 24
    },
    {
        "Where":     "urn:publicid:IDN+sagepoint.powderwireless.net+authority+cm",
        "NodeID":    "nuc1",
        "Type":      "B210",
        "Channels" : "2145e6",
        "Duration" : "15m",
        "End"      :  "2022:03:22T23:35:00",
        "RunCount" : 48
    },
    {
        "Where":     "urn:publicid:IDN+moran.powderwireless.net+authority+cm",
        "NodeID":    "nuc1",
        "Type":      "B210",
        "Channels" : "885e6",
        "Duration" : "15m",
        "End"      :  "2022:03:22T23:35:00",
        "RunCount" : 48
    },
    {
        "Where":     "urn:publicid:IDN+law73.powderwireless.net+authority+cm",
        "NodeID":    "nuc1",
        "Type":      "B210",
        "Channels" : "731.5e6",
        "Duration" : "15m",
        "End"      : "2022:03:22T23:35:00",
        "RunCount" : 48
    },
    {
    	"Where":       "urn:publicid:IDN+emulab.net+authority+cm",
        "NodeID":      "cellsdr1-hospital",
        "Type":        "X310",
        "ComputeType": "d740",
        "Channels" :   "2120e6",
        "Duration" :   "15m",
        "RunCount" :   48
    },
    {
        "Where":       "urn:publicid:IDN+emulab.net+authority+cm",
        "NodeID":      "cellsdr1-hospital",
        "Type":        "X310",
        "ComputeType": "d740",
        "Channels" :   "2120e6",
        "Duration" :   "15m",
        "Start"    :  "2022:03:22T13:00:00",
        "End"      :  "2022:03:22T23:35:00",
        "RunCount" :   48
    },

]