[
    {
        "Where":     "urn:publicid:IDN+ebc.powderwireless.net+authority+cm",
        "NodeID":    "nuc1",
        "Type":      "B210",
        "Channels" : "1967.5e6",
        "Duration" : "61m",
        "RunCount" : 1440
    },
    {
        "Where":     "urn:publicid:IDN+sagepoint.powderwireless.net+authority+cm",
        "NodeID":    "nuc1",
        "Type":      "B210",
        "Channels" : "739e6",
        "Duration" : "61m",
        "RunCount" : 1440
    },
    {
        "Where":     "urn:publicid:IDN+moran.powderwireless.net+authority+cm",
        "NodeID":    "nuc1",
        "Type":      "B210",
        "Channels" : "751e6",
        "Duration" : "61m",
        "RunCount" : 1440
    },
    {
        "Where":     "urn:publicid:IDN+cpg.powderwireless.net+authority+cm",
        "NodeID":    "nuc1",
        "Type":      "B210",
        "Channels" : "739e6",
        "Duration" : "61m",
        "RunCount" : 1440
    },
    {
        "Where":     "urn:publicid:IDN+madsen.powderwireless.net+authority+cm",
        "NodeID":    "nuc1",
        "Type":      "B210",
        "Channels" : "2120e6",
        "Duration" : "61m",
        "RunCount" : 1440
    },
    {
        "Where":     "urn:publicid:IDN+guesthouse.powderwireless.net+authority+cm",
        "NodeID":    "nuc1",
        "Type":      "B210",
        "Channels" : "2175e6",
        "Duration" : "61m",
        "RunCount" : 1440
    },
    {
        "Where":     "urn:publicid:IDN+humanities.powderwireless.net+authority+cm",
        "NodeID":    "nuc1",
        "Type":      "B210",
        "Channels" : "2120e6",
        "Duration" : "61m",
        "RunCount" : 1440
    },
    {
        "Where":       "urn:publicid:IDN+emulab.net+authority+cm",
        "NodeID":      "cellsdr1-bes",
        "Type":        "X310",
        "ComputeType": "d740",
        "Channels" : "1937.5e6",
        "Duration" :   "61m",
        "RunCount" : 1440
    },
    {
        "Where":       "urn:publicid:IDN+emulab.net+authority+cm",
        "NodeID":      "cellsdr1-hospital",
        "Type":        "X310",
        "ComputeType": "d740",
        "Channels" : "751e6",
        "Duration" :   "61m",
        "RunCount" :   1440
    }

]