[
    {
        "Where":     "urn:publicid:IDN+madsen.powderwireless.net+authority+cm",
        "NodeID":    "nuc1",
        "Type":      "B210",
        "Channels" : "624.5e6",
        "Duration" : "10m",
        "End"      :  "2022:03:24T23:30:00",
        "RunCount" : 1440
    },
    {
        "Where":     "urn:publicid:IDN+cpg.powderwireless.net+authority+cm",
        "NodeID":    "nuc1",
        "Type":      "B210",
        "Channels" : "1937.5e6",
        "Duration" : "10m",
        "End"      :  "2022:03:24T23:34:00",
        "RunCount" : 1440
    },
    {
        "Where":       "urn:publicid:IDN+emulab.net+authority+cm",
        "NodeID":      "cellsdr1-bes",
        "Type":        "X310",
        "ComputeType": "d740",
        "Channels" :   "2156.7e6",
        "Duration" :   "10m",
        "RunCount" : 1440
    },
    {
        "Where":     "urn:publicid:IDN+moran.powderwireless.net+authority+cm",
        "NodeID":    "nuc1",
        "Type":      "B210",
        "Channels" : "751e6",
        "Duration" : "10m",
        "End"      :  "2022:03:24T23:36:00",
        "RunCount" : 1440
    },
    {
        "Where":     "urn:publicid:IDN+guesthouse.powderwireless.net+authority+cm",
        "NodeID":    "nuc1",
        "Type":      "B210",
        "Channels" : "885e6,2175e6",
        "Duration" : "70s",
        "End"      :  "2022:03:24T23:32:00",
        "RunCount" : 1440
    },
    {
        "Where":     "urn:publicid:IDN+ebc.powderwireless.net+authority+cm",
        "NodeID":    "nuc1",
        "Type":      "B210",
        "Channels" : "1967.5e6",
        "Duration" : "10m",
        "End"      :  "2022:03:24T23:33:00",
        "RunCount" : 1440
    },
    {
        "Where":       "urn:publicid:IDN+emulab.net+authority+cm",
        "NodeID":      "cellsdr1-hospital",
        "Type":        "X310",
        "ComputeType": "d740",
        "Channels" :   "2120e6",
        "Duration" :   "10m",
        "RunCount" :   1440
    },
    {
        "Where":     "urn:publicid:IDN+sagepoint.powderwireless.net+authority+cm",
        "NodeID":    "nuc1",
        "Type":      "B210",
        "Channels" : "751e6,885e6,1967.5e6,2120e6,2175e6",
        "Duration" : "70s",
        "End"      :  "2022:03:24T23:31:00",
        "RunCount" : 1440
    },
    {
        "Where":     "urn:publicid:IDN+law73.powderwireless.net+authority+cm",
        "NodeID":    "nuc1",
        "Type":      "B210",
        "Channels" : "885e6,2175e6",
        "Duration" : "70s",
        "End"      :  "2022:03:24T23:35:00",
        "RunCount" : 1440
    }

]