[
    {
        "Where":     "urn:publicid:IDN+ebc.powderwireless.net+authority+cm",
        "NodeID":    "nuc1",
        "Type":      "B210",
        "Channels" : "624.5e6,885e6,751e6,763e6,2120e6,1950e6,1967.5e6,2156.7e6",
        "Duration" : "2m",
        "RunCount" : 1440
    },
    {
        "Where":     "urn:publicid:IDN+sagepoint.powderwireless.net+authority+cm",
        "NodeID":    "nuc1",
        "Type":      "B210",
        "Channels" : "719.5e6,2132.5e6,885e6,2145e6,2175e6,2120e6,751e6,739e6,1950e6,1967.5e6,2355e6,1992.5e6",
        "Duration" : "2m",
        "RunCount" : 1440
    },
    {
        "Where":     "urn:publicid:IDN+moran.powderwireless.net+authority+cm",
        "NodeID":    "nuc1",
        "Type":      "B210",
        "Channels" : "1980e6,731.5e6,2132.5e6,885e6,2145e6,751e6,2120e6,2156.7e6",
        "Duration" : "2m",
        "RunCount" : 1440
    },
    {
        "Where":     "urn:publicid:IDN+cpg.powderwireless.net+authority+cm",
        "NodeID":    "nuc1",
        "Type":      "B210",
        "Channels" : "719.5e6,1937.5e6,2132.5e6,2145e6,2355e6,2165e6,1992.5e6",
        "Duration" : "2m",
        "RunCount" : 1440
    },
    {
        "Where":     "urn:publicid:IDN+madsen.powderwireless.net+authority+cm",
        "NodeID":    "nuc1",
        "Type":      "B210",
        "Channels" : "1980e6,624.5e6,885e6,751e6,763e6,2120e6,1950e6,1967.5e6,739e6",
        "Duration" : "2m",
        "RunCount" : 1440
    },
    {
        "Where":     "urn:publicid:IDN+guesthouse.powderwireless.net+authority+cm",
        "NodeID":    "nuc1",
        "Type":      "B210",
        "Channels" : "866.3e6,1980e6,624.5e6,885e6,2175e6,2145e6,1950e6,763e6,2120e6,1957.5e6,1967.5e6",
        "Duration" : "2m",
        "RunCount" : 1440
    },
    {
        "Where":     "urn:publicid:IDN+law73.powderwireless.net+authority+cm",
        "NodeID":    "nuc1",
        "Type":      "B210",
        "Channels" : "1957.5e6,866.3e6,1937.5e6,731.5e6,885e6,2175e6,2145e6,1950e6,2165e6,1992.5e6",
        "Duration" : "2m",
        "RunCount" : 1440
    },
    {
        "Where":       "urn:publicid:IDN+emulab.net+authority+cm",
        "NodeID":      "cellsdr1-bes",
        "Type":        "X310",
        "ComputeType": "d740",
        "Channels" :   "1937.5e6,1950e6,2355e6,1957.5e6,2156.7e6",
        "Duration" :   "2m",
        "RunCount" : 1440
    },
    {
        "Where":       "urn:publicid:IDN+emulab.net+authority+cm",
        "NodeID":      "cellsdr1-hospital",
        "Type":        "X310",
        "ComputeType": "d740",
        "Channels" :   "1980e6,2132.5e6,751e6,2120e6,1957.5e6,1967.5e6",
        "Duration" :   "2m",
        "RunCount" :   1440
    }

]