[
    {
    	"Where":     "urn:publicid:IDN+guesthouse.powderwireless.net+authority+cm",
        "NodeID":    "nuc2",
        "Type":      "B210",
        "Channels" : "719.5,739,763,1950,1980,2132.5,2165,2355,866.3,1957.5,1992.5,624.5,731.5,1937.5,2145,2156.7,751,885,1967.5,2120,2175",
        "Duration" : "30",
        "Mode"     : 2,
        "RunCount" :   100000000
    },
    {
        "Where":     "urn:publicid:IDN+humanities.powderwireless.net+authority+cm",
        "NodeID":    "nuc2",
        "Type":      "B210",
        "Channels" : "719.5,739,763,1950,1980,2132.5,2165,2355,866.3,1957.5,1992.5,624.5,731.5,1937.5,2145,2156.7,751,885,1967.5,2120,2175",
        "Duration" : "30",
        "Mode"     : 2,
        "RunCount" :   100000000
    },
    {
        "Where":     "urn:publicid:IDN+ebc.powderwireless.net+authority+cm",
        "NodeID":    "nuc2",
        "Type":      "B210",
        "Channels" : "719.5,739,763,1950,1980,2132.5,2165,2355,866.3,1957.5,1992.5,624.5,731.5,1937.5,2145,2156.7,751,885,1967.5,2120,2175",
        "Duration" : "30",
        "Mode"     : 2,
        "RunCount" :   100000000
    },
    {
        "Where":     "urn:publicid:IDN+cpg.powderwireless.net+authority+cm",
        "NodeID":    "nuc2",
        "Type":      "B210",
        "Channels" : "719.5,739,763,1950,1980,2132.5,2165,2355,866.3,1957.5,1992.5,624.5,731.5,1937.5,2145,2156.7,751,885,1967.5,2120,2175",
        "Duration" : "30",
        "Mode"     : 2,
        "RunCount" :   100000000
    },
    {
        "Where":     "urn:publicid:IDN+madsen.powderwireless.net+authority+cm",
        "NodeID":    "nuc2",
        "Type":      "B210",
        "Channels" : "719.5,739,763,1950,1980,2132.5,2165,2355,866.3,1957.5,1992.5,624.5,731.5,1937.5,2145,2156.7,751,885,1967.5,2120,2175",
        "Duration" : "30",
        "Mode"     : 2,
        "RunCount" :   100000000
    },
    {
        "Where":     "urn:publicid:IDN+sagepoint.powderwireless.net+authority+cm",
        "NodeID":    "nuc2",
        "Type":      "B210",
        "Channels" : "719.5,739,763,1950,1980,2132.5,2165,2355,866.3,1957.5,1992.5,624.5,731.5,1937.5,2145,2156.7,751,885,1967.5,2120,2175",
        "Duration" : "30",
        "Mode"     : 2,
        "RunCount" :   100000000
    },
    {
        "Where":     "urn:publicid:IDN+bookstore.powderwireless.net+authority+cm",
        "NodeID":    "nuc2",
        "Type":      "B210",
        "Channels" : "719.5,739,763,1950,1980,2132.5,2165,2355,866.3,1957.5,1992.5,624.5,731.5,1937.5,2145,2156.7,751,885,1967.5,2120,2175",
        "Duration" : "30",
        "Mode"     : 2,
        "RunCount" :   100000000
    },
    {
        "Where":     "urn:publicid:IDN+moran.powderwireless.net+authority+cm",
        "NodeID":    "nuc2",
        "Type":      "B210",
        "Channels" : "719.5,739,763,1950,1980,2132.5,2165,2355,866.3,1957.5,1992.5,624.5,731.5,1937.5,2145,2156.7,751,885,1967.5,2120,2175",
        "Duration" : "30",
        "Mode"     : 2,
        "RunCount" :   100000000
    },
    {
        "Where":     "urn:publicid:IDN+web.powderwireless.net+authority+cm",
        "NodeID":    "nuc2",
        "Type":      "B210",
        "Channels" : "719.5,739,763,1950,1980,2132.5,2165,2355,866.3,1957.5,1992.5,624.5,731.5,1937.5,2145,2156.7,751,885,1967.5,2120,2175",
        "Duration" : "30",
        "Mode"     : 2,
        "RunCount" :   100000000
    },
    {
        "Where":     "urn:publicid:IDN+law73.powderwireless.net+authority+cm",
        "NodeID":    "nuc2",
        "Type":      "B210",
        "Channels" : "719.5,739,763,1950,1980,2132.5,2165,2355,866.3,1957.5,1992.5,624.5,731.5,1937.5,2145,2156.7,751,885,1967.5,2120,2175",
        "Duration" : "30",
        "Mode"     : 2,
        "RunCount" :   100000000
    },
    {
    	"Where":       "urn:publicid:IDN+emulab.net+authority+cm",
        "NodeID":      "cellsdr1-hospital",
        "Type":        "X310",
        "ComputeType": "d740",
        "Channels" : "719.5,739,763,1950,1980,2132.5,2165,2355,866.3,1957.5,1992.5,624.5,731.5,1937.5,2145,2156.7,751,885,1967.5,2120,2175",
        "Duration" :   "30",
        "Mode"     : 2,
        "RunCount" :   100000000
    },
    {
        "Where":       "urn:publicid:IDN+emulab.net+authority+cm",
        "NodeID":      "cellsdr1-bes",
        "Type":        "X310",
        "ComputeType": "d740",
        "Channels" : "719.5,739,763,1950,1980,2132.5,2165,2355,866.3,1957.5,1992.5,624.5,731.5,1937.5,2145,2156.7,751,885,1967.5,2120,2175",
        "Duration" :   "30",
        "Mode"     : 2,
        "RunCount" :   100000000
    }
]
